MultiComp (VHDL Template)/Components/VGA/Mem_Mapped_XGA/simulation/qsim/xvga.msim.vcd
$comment
	File created using the following command:
		vcd file xvga.msim.vcd -direction
$end
$date
	Tue Jun 11 05:15:40 2019
$end
$version
	ModelSim Version 10.5b
$end
$timescale
	1ps
$end

$scope module video_xvga_64x32_vhd_vec_tst $end
$var wire 1 ! charAddr [10] $end
$var wire 1 " charAddr [9] $end
$var wire 1 # charAddr [8] $end
$var wire 1 $ charAddr [7] $end
$var wire 1 % charAddr [6] $end
$var wire 1 & charAddr [5] $end
$var wire 1 ' charAddr [4] $end
$var wire 1 ( charAddr [3] $end
$var wire 1 ) charAddr [2] $end
$var wire 1 * charAddr [1] $end
$var wire 1 + charAddr [0] $end
$var wire 1 , charData [7] $end
$var wire 1 - charData [6] $end
$var wire 1 . charData [5] $end
$var wire 1 / charData [4] $end
$var wire 1 0 charData [3] $end
$var wire 1 1 charData [2] $end
$var wire 1 2 charData [1] $end
$var wire 1 3 charData [0] $end
$var wire 1 4 clk $end
$var wire 1 5 dispAddr [10] $end
$var wire 1 6 dispAddr [9] $end
$var wire 1 7 dispAddr [8] $end
$var wire 1 8 dispAddr [7] $end
$var wire 1 9 dispAddr [6] $end
$var wire 1 : dispAddr [5] $end
$var wire 1 ; dispAddr [4] $end
$var wire 1 < dispAddr [3] $end
$var wire 1 = dispAddr [2] $end
$var wire 1 > dispAddr [1] $end
$var wire 1 ? dispAddr [0] $end
$var wire 1 @ dispData [7] $end
$var wire 1 A dispData [6] $end
$var wire 1 B dispData [5] $end
$var wire 1 C dispData [4] $end
$var wire 1 D dispData [3] $end
$var wire 1 E dispData [2] $end
$var wire 1 F dispData [1] $end
$var wire 1 G dispData [0] $end
$var wire 1 H hAct $end
$var wire 1 I hSync $end
$var wire 1 J video $end
$var wire 1 K vSync $end

$scope module i1 $end
$var wire 1 L gnd $end
$var wire 1 M vcc $end
$var wire 1 N unknown $end
$var wire 1 O devoe $end
$var wire 1 P devclrn $end
$var wire 1 Q devpor $end
$var wire 1 R ww_devoe $end
$var wire 1 S ww_devclrn $end
$var wire 1 T ww_devpor $end
$var wire 1 U ww_charAddr [10] $end
$var wire 1 V ww_charAddr [9] $end
$var wire 1 W ww_charAddr [8] $end
$var wire 1 X ww_charAddr [7] $end
$var wire 1 Y ww_charAddr [6] $end
$var wire 1 Z ww_charAddr [5] $end
$var wire 1 [ ww_charAddr [4] $end
$var wire 1 \ ww_charAddr [3] $end
$var wire 1 ] ww_charAddr [2] $end
$var wire 1 ^ ww_charAddr [1] $end
$var wire 1 _ ww_charAddr [0] $end
$var wire 1 ` ww_charData [7] $end
$var wire 1 a ww_charData [6] $end
$var wire 1 b ww_charData [5] $end
$var wire 1 c ww_charData [4] $end
$var wire 1 d ww_charData [3] $end
$var wire 1 e ww_charData [2] $end
$var wire 1 f ww_charData [1] $end
$var wire 1 g ww_charData [0] $end
$var wire 1 h ww_dispAddr [10] $end
$var wire 1 i ww_dispAddr [9] $end
$var wire 1 j ww_dispAddr [8] $end
$var wire 1 k ww_dispAddr [7] $end
$var wire 1 l ww_dispAddr [6] $end
$var wire 1 m ww_dispAddr [5] $end
$var wire 1 n ww_dispAddr [4] $end
$var wire 1 o ww_dispAddr [3] $end
$var wire 1 p ww_dispAddr [2] $end
$var wire 1 q ww_dispAddr [1] $end
$var wire 1 r ww_dispAddr [0] $end
$var wire 1 s ww_dispData [7] $end
$var wire 1 t ww_dispData [6] $end
$var wire 1 u ww_dispData [5] $end
$var wire 1 v ww_dispData [4] $end
$var wire 1 w ww_dispData [3] $end
$var wire 1 x ww_dispData [2] $end
$var wire 1 y ww_dispData [1] $end
$var wire 1 z ww_dispData [0] $end
$var wire 1 { ww_clk $end
$var wire 1 | ww_video $end
$var wire 1 } ww_vSync $end
$var wire 1 ~ ww_hSync $end
$var wire 1 !! ww_hAct $end
$var wire 1 "! \clk~inputclkctrl_INCLK_bus\ [3] $end
$var wire 1 #! \clk~inputclkctrl_INCLK_bus\ [2] $end
$var wire 1 $! \clk~inputclkctrl_INCLK_bus\ [1] $end
$var wire 1 %! \clk~inputclkctrl_INCLK_bus\ [0] $end
$var wire 1 &! \charAddr[0]~output_o\ $end
$var wire 1 '! \charAddr[1]~output_o\ $end
$var wire 1 (! \charAddr[2]~output_o\ $end
$var wire 1 )! \charAddr[3]~output_o\ $end
$var wire 1 *! \charAddr[4]~output_o\ $end
$var wire 1 +! \charAddr[5]~output_o\ $end
$var wire 1 ,! \charAddr[6]~output_o\ $end
$var wire 1 -! \charAddr[7]~output_o\ $end
$var wire 1 .! \charAddr[8]~output_o\ $end
$var wire 1 /! \charAddr[9]~output_o\ $end
$var wire 1 0! \charAddr[10]~output_o\ $end
$var wire 1 1! \dispAddr[0]~output_o\ $end
$var wire 1 2! \dispAddr[1]~output_o\ $end
$var wire 1 3! \dispAddr[2]~output_o\ $end
$var wire 1 4! \dispAddr[3]~output_o\ $end
$var wire 1 5! \dispAddr[4]~output_o\ $end
$var wire 1 6! \dispAddr[5]~output_o\ $end
$var wire 1 7! \dispAddr[6]~output_o\ $end
$var wire 1 8! \dispAddr[7]~output_o\ $end
$var wire 1 9! \dispAddr[8]~output_o\ $end
$var wire 1 :! \dispAddr[9]~output_o\ $end
$var wire 1 ;! \dispAddr[10]~output_o\ $end
$var wire 1 <! \video~output_o\ $end
$var wire 1 =! \vSync~output_o\ $end
$var wire 1 >! \hSync~output_o\ $end
$var wire 1 ?! \hAct~output_o\ $end
$var wire 1 @! \clk~input_o\ $end
$var wire 1 A! \clk~inputclkctrl_outclk\ $end
$var wire 1 B! \theCharRow[0]~8_combout\ $end
$var wire 1 C! \horizCount[0]~11_combout\ $end
$var wire 1 D! \horizCount[0]~12\ $end
$var wire 1 E! \horizCount[1]~13_combout\ $end
$var wire 1 F! \horizCount[1]~14\ $end
$var wire 1 G! \horizCount[2]~15_combout\ $end
$var wire 1 H! \horizCount[2]~16\ $end
$var wire 1 I! \horizCount[3]~17_combout\ $end
$var wire 1 J! \horizCount[3]~18\ $end
$var wire 1 K! \horizCount[4]~19_combout\ $end
$var wire 1 L! \horizCount[4]~20\ $end
$var wire 1 M! \horizCount[5]~21_combout\ $end
$var wire 1 N! \horizCount[5]~22\ $end
$var wire 1 O! \horizCount[6]~23_combout\ $end
$var wire 1 P! \horizCount[6]~24\ $end
$var wire 1 Q! \horizCount[7]~25_combout\ $end
$var wire 1 R! \horizCount[7]~26\ $end
$var wire 1 S! \horizCount[8]~27_combout\ $end
$var wire 1 T! \horizCount[8]~28\ $end
$var wire 1 U! \horizCount[9]~29_combout\ $end
$var wire 1 V! \horizCount[9]~30\ $end
$var wire 1 W! \horizCount[10]~31_combout\ $end
$var wire 1 X! \LessThan0~0_combout\ $end
$var wire 1 Y! \LessThan0~1_combout\ $end
$var wire 1 Z! \prescaleRow~1_combout\ $end
$var wire 1 [! \prescaleRow~0_combout\ $end
$var wire 1 \! \theCharRow[0]~10_combout\ $end
$var wire 1 ]! \theCharRow[0]~9\ $end
$var wire 1 ^! \theCharRow[1]~11_combout\ $end
$var wire 1 _! \theCharRow[1]~12\ $end
$var wire 1 `! \theCharRow[2]~13_combout\ $end
$var wire 1 a! \dispData[0]~input_o\ $end
$var wire 1 b! \dispData[1]~input_o\ $end
$var wire 1 c! \dispData[2]~input_o\ $end
$var wire 1 d! \dispData[3]~input_o\ $end
$var wire 1 e! \dispData[4]~input_o\ $end
$var wire 1 f! \dispData[5]~input_o\ $end
$var wire 1 g! \dispData[6]~input_o\ $end
$var wire 1 h! \dispData[7]~input_o\ $end
$var wire 1 i! \theCharRow[2]~14\ $end
$var wire 1 j! \theCharRow[3]~15_combout\ $end
$var wire 1 k! \theCharRow[3]~16\ $end
$var wire 1 l! \theCharRow[4]~17_combout\ $end
$var wire 1 m! \theCharRow[4]~18\ $end
$var wire 1 n! \theCharRow[5]~19_combout\ $end
$var wire 1 o! \theCharRow[5]~20\ $end
$var wire 1 p! \theCharRow[6]~21_combout\ $end
$var wire 1 q! \theCharRow[6]~22\ $end
$var wire 1 r! \theCharRow[7]~23_combout\ $end
$var wire 1 s! \vertLineCount[0]~10_combout\ $end
$var wire 1 t! \LessThan1~0_combout\ $end
$var wire 1 u! \LessThan1~1_combout\ $end
$var wire 1 v! \LessThan1~2_combout\ $end
$var wire 1 w! \vertLineCount[0]~11\ $end
$var wire 1 x! \vertLineCount[1]~12_combout\ $end
$var wire 1 y! \vertLineCount[1]~13\ $end
$var wire 1 z! \vertLineCount[2]~14_combout\ $end
$var wire 1 {! \vertLineCount[2]~15\ $end
$var wire 1 |! \vertLineCount[3]~16_combout\ $end
$var wire 1 }! \vertLineCount[3]~17\ $end
$var wire 1 ~! \vertLineCount[4]~18_combout\ $end
$var wire 1 !" \vertLineCount[4]~19\ $end
$var wire 1 "" \vertLineCount[5]~20_combout\ $end
$var wire 1 #" \vertLineCount[5]~21\ $end
$var wire 1 $" \vertLineCount[6]~22_combout\ $end
$var wire 1 %" \vertLineCount[6]~23\ $end
$var wire 1 &" \vertLineCount[7]~24_combout\ $end
$var wire 1 '" \vertLineCount[7]~25\ $end
$var wire 1 (" \vertLineCount[8]~26_combout\ $end
$var wire 1 )" \vertLineCount[8]~27\ $end
$var wire 1 *" \vertLineCount[9]~28_combout\ $end
$var wire 1 +" \process_0~0_combout\ $end
$var wire 1 ," \charData[0]~input_o\ $end
$var wire 1 -" \charData[2]~input_o\ $end
$var wire 1 ." \charData[1]~input_o\ $end
$var wire 1 /" \charData[3]~input_o\ $end
$var wire 1 0" \Mux0~0_combout\ $end
$var wire 1 1" \Mux0~1_combout\ $end
$var wire 1 2" \charData[6]~input_o\ $end
$var wire 1 3" \charData[4]~input_o\ $end
$var wire 1 4" \charData[7]~input_o\ $end
$var wire 1 5" \charData[5]~input_o\ $end
$var wire 1 6" \Mux0~2_combout\ $end
$var wire 1 7" \Mux0~3_combout\ $end
$var wire 1 8" \video~0_combout\ $end
$var wire 1 9" \video~reg0_q\ $end
$var wire 1 :" \process_0~2_combout\ $end
$var wire 1 ;" \process_0~1_combout\ $end
$var wire 1 <" \process_0~3_combout\ $end
$var wire 1 =" \n_vSync~q\ $end
$var wire 1 >" \process_0~4_combout\ $end
$var wire 1 ?" \process_0~5_combout\ $end
$var wire 1 @" \n_hSync~q\ $end
$var wire 1 A" \hAct~reg0_q\ $end
$var wire 1 B" theCharRow [7] $end
$var wire 1 C" theCharRow [6] $end
$var wire 1 D" theCharRow [5] $end
$var wire 1 E" theCharRow [4] $end
$var wire 1 F" theCharRow [3] $end
$var wire 1 G" theCharRow [2] $end
$var wire 1 H" theCharRow [1] $end
$var wire 1 I" theCharRow [0] $end
$var wire 1 J" horizCount [10] $end
$var wire 1 K" horizCount [9] $end
$var wire 1 L" horizCount [8] $end
$var wire 1 M" horizCount [7] $end
$var wire 1 N" horizCount [6] $end
$var wire 1 O" horizCount [5] $end
$var wire 1 P" horizCount [4] $end
$var wire 1 Q" horizCount [3] $end
$var wire 1 R" horizCount [2] $end
$var wire 1 S" horizCount [1] $end
$var wire 1 T" horizCount [0] $end
$var wire 1 U" vertLineCount [9] $end
$var wire 1 V" vertLineCount [8] $end
$var wire 1 W" vertLineCount [7] $end
$var wire 1 X" vertLineCount [6] $end
$var wire 1 Y" vertLineCount [5] $end
$var wire 1 Z" vertLineCount [4] $end
$var wire 1 [" vertLineCount [3] $end
$var wire 1 \" vertLineCount [2] $end
$var wire 1 ]" vertLineCount [1] $end
$var wire 1 ^" vertLineCount [0] $end
$var wire 1 _" prescaleRow [1] $end
$var wire 1 `" prescaleRow [0] $end
$var wire 1 a" \ALT_INV_n_hSync~q\ $end
$var wire 1 b" \ALT_INV_n_vSync~q\ $end
$upscope $end
$upscope $end
$enddefinitions $end
#0
$dumpvars
04
0H
1I
0J
1K
0L
1M
xN
1O
1P
1Q
1R
1S
1T
0{
0|
1}
1~
0!!
0&!
0'!
0(!
0)!
0*!
0+!
0,!
0-!
0.!
0/!
00!
01!
02!
03!
04!
05!
06!
07!
08!
09!
0:!
0;!
0<!
1=!
1>!
0?!
0@!
0A!
1B!
1C!
0D!
0E!
1F!
0G!
0H!
0I!
1J!
0K!
0L!
0M!
1N!
0O!
0P!
0Q!
1R!
0S!
0T!
0U!
1V!
0W!
1X!
0Y!
0Z!
1[!
0\!
0]!
0^!
1_!
0`!
0a!
0b!
0c!
0d!
0e!
0f!
0g!
0h!
0i!
0j!
1k!
0l!
0m!
0n!
1o!
0p!
0q!
0r!
1s!
0t!
0u!
0v!
0w!
0x!
1y!
0z!
0{!
0|!
1}!
0~!
0!"
0""
1#"
0$"
0%"
0&"
1'"
0("
0)"
0*"
1+"
0,"
0-"
0."
0/"
00"
01"
02"
03"
04"
05"
06"
07"
08"
09"
1:"
1;"
0<"
0="
0>"
0?"
0@"
0A"
1a"
1b"
0,
0-
0.
0/
00
01
02
03
0@
0A
0B
0C
0D
0E
0F
0G
0U
0V
0W
0X
0Y
0Z
0[
0\
0]
0^
0_
0`
0a
0b
0c
0d
0e
0f
0g
0h
0i
0j
0k
0l
0m
0n
0o
0p
0q
0r
0s
0t
0u
0v
0w
0x
0y
0z
0B"
0C"
0D"
0E"
0F"
0G"
0H"
0I"
0J"
0K"
0L"
0M"
0N"
0O"
0P"
0Q"
0R"
0S"
0T"
0U"
0V"
0W"
0X"
0Y"
0Z"
0["
0\"
0]"
0^"
0_"
0`"
1"!
1#!
1$!
0%!
0!
0"
0#
0$
0%
0&
0'
0(
0)
0*
0+
05
06
07
08
09
0:
0;
0<
0=
0>
0?
$end
#1000
14
1{
1@!
1%!
1A!
1T"
1`"
1A"
1Z!
0[!
0C!
1D!
1E!
1?!
1!!
1H
#2000
04
0{
0@!
0%!
0A!
#3000
14
1{
1@!
1%!
1A!
0T"
1S"
1_"
0`"
0Z!
1\!
0E!
0F!
1C!
0D!
1E!
1F!
1G!
0G!
#4000
04
0{
0@!
0%!
0A!
#5000
14
1{
1@!
1%!
1A!
1T"
0_"
1I"
0B!
1]!
1[!
0\!
0C!
1D!
0E!
0F!
1^!
1&!
1G!
1_
1+
#6000
04
0{
0@!
0%!
0A!
#7000
14
1{
1@!
1%!
1A!
0T"
0S"
1R"
1`"
1Z!
0[!
0G!
1H!
1E!
1F!
1C!
0D!
0E!
1G!
0H!
1I!
0I!
#8000
04
0{
0@!
0%!
0A!
#9000
14
1{
1@!
1%!
1A!
1T"
1_"
0`"
0Z!
1\!
0C!
1D!
1E!
#10000
04
0{
0@!
0%!
0A!
#11000
14
1{
1@!
1%!
1A!
0T"
1S"
0_"
0I"
1H"
0^!
0_!
1B!
0]!
1[!
0\!
0E!
0F!
10"
16"
1C!
0D!
1E!
1F!
0G!
1H!
1^!
1_!
1`!
1'!
0&!
0`!
1I!
1G!
0H!
1^
0_
0+
1*
0I!
#12000
04
0{
0@!
0%!
0A!
#13000
14
1{
1@!
1%!
1A!
1T"
1`"
1Z!
0[!
0C!
1D!
0E!
0F!
0G!
1H!
1I!
#14000
04
0{
0@!
0%!
0A!
#15000
14
1{
1@!
1%!
1A!
0T"
0S"
0R"
1Q"
1_"
0`"
0Z!
1\!
0I!
0J!
1G!
0H!
1E!
1F!
00"
11"
06"
17"
1C!
0D!
0E!
07"
18"
01"
0G!
1I!
1J!
1K!
0K!
08"
#16000
04
0{
0@!
0%!
0A!
#17000
14
1{
1@!
1%!
1A!
1T"
0_"
1I"
0B!
1]!
1[!
0\!
0C!
1D!
1E!
0^!
0_!
1&!
1`!
1_
1+
#18000
04
0{
0@!
0%!
0A!
#19000
14
1{
1@!
1%!
1A!
0T"
1S"
1`"
1Z!
0[!
0E!
0F!
1C!
0D!
1E!
1F!
1G!
0G!
#20000
04
0{
0@!
0%!
0A!
#21000
14
1{
1@!
1%!
1A!
1T"
1_"
0`"
0Z!
1\!
0C!
1D!
0E!
0F!
1G!
#22000
04
0{
0@!
0%!
0A!
#23000
14
1{
1@!
1%!
1A!
0T"
0S"
1R"
0_"
0I"
0H"
1G"
0`!
1i!
1^!
1_!
1B!
0]!
1[!
0\!
0G!
1H!
1E!
1F!
1C!
0D!
0E!
1G!
0H!
0I!
0J!
0^!
1`!
0i!
1j!
1(!
0'!
0&!
0j!
1K!
1I!
1J!
1]
0^
0_
0+
0*
1)
0K!
#24000
04
0{
0@!
0%!
0A!
#25000
14
1{
1@!
1%!
1A!
1T"
1`"
1Z!
0[!
0C!
1D!
1E!
#26000
04
0{
0@!
0%!
0A!
#27000
14
1{
1@!
1%!
1A!
0T"
1S"
1_"
0`"
0Z!
1\!
0E!
0F!
10"
16"
1C!
0D!
1E!
1F!
0G!
1H!
0I!
0J!
1G!
0H!
1I!
1J!
1K!
0K!
#28000
04
0{
0@!
0%!
0A!
#29000
14
1{
1@!
1%!
1A!
1T"
0_"
1I"
0B!
1]!
1[!
0\!
0C!
1D!
0E!
0F!
1^!
1&!
0G!
1H!
1_
1+
0I!
0J!
1K!
#30000
04
0{
0@!
0%!
0A!
#31000
14
1{
1@!
1%!
1A!
0T"
0S"
0R"
0Q"
1P"
1`"
1Z!
0[!
0K!
1L!
1I!
1J!
1G!
0H!
1E!
1F!
00"
11"
06"
17"
1C!
0D!
0E!
07"
18"
01"
0G!
0I!
1K!
0L!
1M!
11!
0M!
08"
1r
1?
#32000
04
0{
0@!
0%!
0A!
#33000
14
1{
1@!
1%!
1A!
1T"
1_"
0`"
0Z!
1\!
0C!
1D!
1E!
#34000
04
0{
0@!
0%!
0A!
#35000
14
1{
1@!
1%!
1A!
0T"
1S"
0_"
0I"
1H"
0^!
0_!
1B!
0]!
1[!
0\!
0E!
0F!
1C!
0D!
1E!
1F!
1G!
1^!
1_!
0`!
1i!
1'!
0&!
1j!
1`!
0i!
0G!
1^
0_
0+
1*
0j!
#36000
04
0{
0@!
0%!
0A!
#37000
14
1{
1@!
1%!
1A!
1T"
1`"
1Z!
0[!
0C!
1D!
0E!
0F!
1G!
#38000
04
0{
0@!
0%!
0A!
#39000
14
1{
1@!
1%!
1A!
0T"
0S"
1R"
1_"
0`"
0Z!
1\!
0G!
1H!
1>"
1E!
1F!
1C!
0D!
0E!
1G!
0H!
1I!
0I!
#40000
04
0{
0@!
0%!
0A!
#41000
14
1{
1@!
1%!
1A!
1T"
0_"
1I"
0B!
1]!
1[!
0\!
0C!
1D!
1E!
0^!
0_!
1&!
0`!
1i!
1_
1+
1j!
#42000
04
0{
0@!
0%!
0A!
#43000
14
1{
1@!
1%!
1A!
0T"
1S"
1`"
1Z!
0[!
0E!
0F!
10"
16"
1C!
0D!
1E!
1F!
0G!
1H!
1I!
1G!
0H!
0I!
#44000
04
0{
0@!
0%!
0A!
#45000
14
1{
1@!
1%!
1A!
1T"
1_"
0`"
0Z!
1\!
0C!
1D!
0E!
0F!
0G!
1H!
1I!
#46000
04
0{
0@!
0%!
0A!
#47000
14
1{
1@!
1%!
1A!
0T"
0S"
0R"
1Q"
0_"
0I"
0H"
0G"
1F"
0j!
0k!
1`!
0i!
1^!
1_!
1B!
0]!
1[!
0\!
0I!
0J!
1G!
0H!
1E!
1F!
00"
11"
06"
17"
1C!
0D!
0E!
07"
18"
01"
0G!
1I!
1J!
0K!
1L!
0^!
0`!
1j!
1k!
1l!
17!
0(!
0'!
0&!
0l!
1M!
1K!
0L!
08"
1l
0]
0^
0_
19
0+
0*
0)
0M!
#48000
04
0{
0@!
0%!
0A!
#49000
14
1{
1@!
1%!
1A!
1T"
1`"
1Z!
0[!
0C!
1D!
1E!
#50000
04
0{
0@!
0%!
0A!
#51000
14
1{
1@!
1%!
1A!
0T"
1S"
1_"
0`"
0Z!
1\!
0E!
0F!
1C!
0D!
1E!
1F!
1G!
0G!
#52000
04
0{
0@!
0%!
0A!
#53000
14
1{
1@!
1%!
1A!
1T"
0_"
1I"
0B!
1]!
1[!
0\!
0C!
1D!
0E!
0F!
1^!
1&!
1G!
1_
1+
#54000
04
0{
0@!
0%!
0A!
#55000
14
1{
1@!
1%!
1A!
0T"
0S"
1R"
1`"
1Z!
0[!
0G!
1H!
1E!
1F!
1C!
0D!
0E!
1G!
0H!
0I!
0J!
0K!
1L!
1I!
1J!
1K!
0L!
1M!
0M!
#56000
04
0{
0@!
0%!
0A!
#57000
14
1{
1@!
1%!
1A!
1T"
1_"
0`"
0Z!
1\!
0C!
1D!
1E!
#58000
04
0{
0@!
0%!
0A!
#59000
14
1{
1@!
1%!
1A!
0T"
1S"
0_"
0I"
1H"
0^!
0_!
1B!
0]!
1[!
0\!
0E!
0F!
10"
16"
1C!
0D!
1E!
1F!
0G!
1H!
1^!
1_!
1`!
1'!
0&!
0`!
0I!
0J!
1G!
0H!
1^
0_
0+
1*
1I!
1J!
0K!
1L!
1M!
1K!
0L!
0M!
#60000
04
0{
0@!
0%!
0A!
#61000
14
1{
1@!
1%!
1A!
1T"
1`"
1Z!
0[!
0C!
1D!
0E!
0F!
0G!
1H!
0I!
0J!
0K!
1L!
1M!
#62000
04
0{
0@!
0%!
0A!
#63000
14
1{
1@!
1%!
1A!
0T"
0S"
0R"
0Q"
0P"
1O"
1_"
0`"
0Z!
1\!
0M!
0N!
1K!
0L!
1I!
1J!
1G!
0H!
1E!
1F!
00"
11"
06"
17"
1C!
0D!
0E!
07"
18"
01"
0G!
0I!
0K!
1M!
1N!
1O!
12!
01!
0O!
08"
1q
0r
0?
1>
#64000
04
0{
0@!
0%!
0A!
#65000
14
1{
1@!
1%!
1A!
1T"
0_"
1I"
0B!
1]!
1[!
0\!
0C!
1D!
1E!
0^!
0_!
1&!
1`!
1_
1+
#66000
04
0{
0@!
0%!
0A!
#67000
14
1{
1@!
1%!
1A!
0T"
1S"
1`"
1Z!
0[!
0E!
0F!
1C!
0D!
1E!
1F!
1G!
0G!
#68000
04
0{
0@!
0%!
0A!
#69000
14
1{
1@!
1%!
1A!
1T"
1_"
0`"
0Z!
1\!
0C!
1D!
0E!
0F!
1G!
#70000
04
0{
0@!
0%!
0A!
#71000
14
1{
1@!
1%!
1A!
0T"
0S"
1R"
0_"
0I"
0H"
1G"
0`!
1i!
1^!
1_!
1B!
0]!
1[!
0\!
0G!
1H!
1E!
1F!
1C!
0D!
0E!
1G!
0H!
1I!
0^!
1`!
0i!
0j!
0k!
1(!
0'!
0&!
1l!
1j!
1k!
0I!
1]
0^
0_
0+
0*
1)
0l!
#72000
04
0{
0@!
0%!
0A!
#73000
14
1{
1@!
1%!
1A!
1T"
1`"
1Z!
0[!
0C!
1D!
1E!
#74000
04
0{
0@!
0%!
0A!
#75000
14
1{
1@!
1%!
1A!
0T"
1S"
1_"
0`"
0Z!
1\!
0E!
0F!
10"
16"
1C!
0D!
1E!
1F!
0G!
1H!
1I!
1G!
0H!
0I!
#76000
04
0{
0@!
0%!
0A!
#77000
14
1{
1@!
1%!
1A!
1T"
0_"
1I"
0B!
1]!
1[!
0\!
0C!
1D!
0E!
0F!
1^!
1&!
0G!
1H!
1_
1+
1I!
#78000
04
0{
0@!
0%!
0A!
#79000
14
1{
1@!
1%!
1A!
0T"
0S"
0R"
1Q"
1`"
1Z!
0[!
0I!
0J!
1G!
0H!
1E!
1F!
00"
11"
06"
17"
1C!
0D!
0E!
07"
18"
01"
0G!
1I!
1J!
1K!
0K!
08"
#80000
04
0{
0@!
0%!
0A!
#81000
14
1{
1@!
1%!
1A!
1T"
1_"
0`"
0Z!
1\!
0C!
1D!
1E!
#82000
04
0{
0@!
0%!
0A!
#83000
14
1{
1@!
1%!
1A!
0T"
1S"
0_"
0I"
1H"
0^!
0_!
1B!
0]!
1[!
0\!
0E!
0F!
1C!
0D!
1E!
1F!
1G!
1^!
1_!
0`!
1i!
1'!
0&!
0j!
0k!
1`!
0i!
0G!
1^
0_
0+
1*
1j!
1k!
1l!
0l!
#84000
04
0{
0@!
0%!
0A!
#85000
14
1{
1@!
1%!
1A!
1T"
1`"
1Z!
0[!
0C!
1D!
0E!
0F!
1G!
#86000
04
0{
0@!
0%!
0A!
#87000
14
1{
1@!
1%!
1A!
0T"
0S"
1R"
1_"
0`"
0Z!
1\!
0G!
1H!
0>"
1E!
1F!
1C!
0D!
0E!
1G!
0H!
0I!
0J!
1K!
1I!
1J!
0K!
#88000
04
0{
0@!
0%!
0A!
#89000
14
1{
1@!
1%!
1A!
1T"
0_"
1I"
0B!
1]!
1[!
0\!
0C!
1D!
1E!
0^!
0_!
1&!
0`!
1i!
1_
1+
0j!
0k!
1l!
#90000
04
0{
0@!
0%!
0A!
#91000
14
1{
1@!
1%!
1A!
0T"
1S"
1`"
1Z!
0[!
0E!
0F!
10"
16"
1C!
0D!
1E!
1F!
0G!
1H!
0I!
0J!
1G!
0H!
1I!
1J!
1K!
0K!
#92000
04
0{
0@!
0%!
0A!
#93000
14
1{
1@!
1%!
1A!
1T"
1_"
0`"
0Z!
1\!
0C!
1D!
0E!
0F!
0G!
1H!
0I!
0J!
1K!
#94000
04
0{
0@!
0%!
0A!
#95000
14
1{
1@!
1%!
1A!
0T"
0S"
0R"
0Q"
1P"
0_"
0I"
0H"
0G"
0F"
1E"
0l!
1m!
1j!
1k!
1`!
0i!
1^!
1_!
1B!
0]!
1[!
0\!
0K!
1L!
1I!
1J!
1G!
0H!
1E!
1F!
00"
11"
06"
17"
1C!
0D!
0E!
07"
18"
01"
0G!
0I!
1K!
0L!
0M!
0N!
0^!
0`!
0j!
1l!
0m!
1n!
18!
07!
0(!
0'!
0&!
11!
0n!
1O!
1M!
1N!
08"
1k
0l
0]
0^
0_
1r
1?
09
18
0+
0*
0)
0O!
#96000
04
0{
0@!
0%!
0A!
#97000
14
1{
1@!
1%!
1A!
1T"
1`"
1Z!
0[!
0C!
1D!
1E!
#98000
04
0{
0@!
0%!
0A!
#99000
14
1{
1@!
1%!
1A!
0T"
1S"
1_"
0`"
0Z!
1\!
0E!
0F!
1C!
0D!
1E!
1F!
1G!
0G!
#100000
04
0{
0@!
0%!
0A!
#101000
14
1{
1@!
1%!
1A!
1T"
0_"
1I"
0B!
1]!
1[!
0\!
0C!
1D!
0E!
0F!
1^!
1&!
1G!
1_
1+
#102000
04
0{
0@!
0%!
0A!
#103000
14
1{
1@!
1%!
1A!
0T"
0S"
1R"
1`"
1Z!
0[!
0G!
1H!
1E!
1F!
1C!
0D!
0E!
1G!
0H!
1I!
0I!
#104000
04
0{
0@!
0%!
0A!
#105000
14
1{
1@!
1%!
1A!
1T"
1_"
0`"
0Z!
1\!
0C!
1D!
1E!
#106000
04
0{
0@!
0%!
0A!
#107000
14
1{
1@!
1%!
1A!
0T"
1S"
0_"
0I"
1H"
0^!
0_!
1B!
0]!
1[!
0\!
0E!
0F!
10"
16"
1C!
0D!
1E!
1F!
0G!
1H!
1^!
1_!
1`!
1'!
0&!
0`!
1I!
1G!
0H!
1^
0_
0+
1*
0I!
#108000
04
0{
0@!
0%!
0A!
#109000
14
1{
1@!
1%!
1A!
1T"
1`"
1Z!
0[!
0C!
1D!
0E!
0F!
0G!
1H!
1I!
#110000
04
0{
0@!
0%!
0A!
#111000
14
1{
1@!
1%!
1A!
0T"
0S"
0R"
1Q"
1_"
0`"
0Z!
1\!
0I!
0J!
1G!
0H!
1E!
1F!
00"
11"
06"
17"
1C!
0D!
0E!
07"
18"
01"
0G!
1I!
1J!
0K!
1L!
0M!
0N!
1K!
0L!
08"
1M!
1N!
1O!
0O!
#112000
04
0{
0@!
0%!
0A!
#113000
14
1{
1@!
1%!
1A!
1T"
0_"
1I"
0B!
1]!
1[!
0\!
0C!
1D!
1E!
0^!
0_!
1&!
1`!
1_
1+
#114000
04
0{
0@!
0%!
0A!
#115000
14
1{
1@!
1%!
1A!
0T"
1S"
1`"
1Z!
0[!
0E!
0F!
1C!
0D!
1E!
1F!
1G!
0G!
#116000
04
0{
0@!
0%!
0A!
#117000
14
1{
1@!
1%!
1A!
1T"
1_"
0`"
0Z!
1\!
0C!
1D!
0E!
0F!
1G!
#118000
04
0{
0@!
0%!
0A!
#119000
14
1{
1@!
1%!
1A!
0T"
0S"
1R"
0_"
0I"
0H"
1G"
0`!
1i!
1^!
1_!
1B!
0]!
1[!
0\!
0G!
1H!
1E!
1F!
1C!
0D!
0E!
1G!
0H!
0I!
0J!
0^!
1`!
0i!
1j!
1(!
0'!
0&!
0j!
0K!
1L!
1I!
1J!
1]
0^
0_
0+
0*
1)
1K!
0L!
0M!
0N!
1O!
1M!
1N!
0O!
#120000
04
0{
0@!
0%!
0A!
#121000
14
1{
1@!
1%!
1A!
1T"
1`"
1Z!
0[!
0C!
1D!
1E!
#122000
04
0{
0@!
0%!
0A!
#123000
14
1{
1@!
1%!
1A!
0T"
1S"
1_"
0`"
0Z!
1\!
0E!
0F!
10"
16"
1C!
0D!
1E!
1F!
0G!
1H!
0I!
0J!
1G!
0H!
1I!
1J!
0K!
1L!
0M!
0N!
1K!
0L!
1M!
1N!
1O!
0O!
#124000
04
0{
0@!
0%!
0A!
#125000
14
1{
1@!
1%!
1A!
1T"
0_"
1I"
0B!
1]!
1[!
0\!
0C!
1D!
0E!
0F!
1^!
1&!
0G!
1H!
1_
1+
0I!
0J!
0K!
1L!
0M!
0N!
1O!
#126000
04
0{
0@!
0%!
0A!
#127000
14
1{
1@!
1%!
1A!
0T"
0S"
0R"
0Q"
0P"
0O"
1N"
1`"
1Z!
0[!
0O!
1P!
0X!
1M!
1N!
1K!
0L!
1I!
1J!
1G!
0H!
1E!
1F!
00"
11"
06"
17"
1C!
0D!
0E!
07"
18"
01"
0G!
0I!
0K!
0M!
1O!
0P!
1Q!
13!
02!
01!
0Q!
08"
1p
0q
0r
0?
0>
1=
#128000
04
0{
0@!
0%!
0A!
#129000
14
1{
1@!
1%!
1A!
1T"
1_"
0`"
0Z!
1\!
0C!
1D!
1E!
